yufan_yin_week5.utf8
…
Week 5 Exercises

yufan_yin_week5: 13.10. - 19.10.2020

Read the file timeuse_tidy.rds with readRDS(). The file contains the dataset that we tidied in the exercise session: records of daily time use from participants over multiple days. Note that since the data has been stored as rds (R-specific format), column types and factor levels are as we left them, and dont need to be re-corrected.

readRDS(file = "D:/Users/yinyf/datavis-R/week5/timeuse_tidy.rds")

## # A tibble: 26,568 x 9
##    indivID date       female   age occ_full_time activity_class time_spent
##    <chr>   <date>     <fct>  <dbl> <fct>         <fct>               <dbl>
##  1 1013302 2016-11-11 0         70 0             Lifts                   0
##  2 1013302 2016-11-11 0         70 0             Work                    0
##  3 1013302 2016-11-11 0         70 0             Education               0
##  4 1013302 2016-11-11 0         70 0             Shopping                0
##  5 1013302 2016-11-11 0         70 0             Business                0
##  6 1013302 2016-11-11 0         70 0             Petrol                  0
##  7 1013302 2016-11-11 0         70 0             Social / Leis~          0
##  8 1013302 2016-11-11 0         70 0             Vacation                0
##  9 1013302 2016-11-11 0         70 0             Exercise                6
## 10 1013302 2016-11-11 0         70 0             Home                 1424
## # ... with 26,558 more rows, and 2 more variables: weekday <ord>,
## #   week_number <dbl>
…
grouped_df2 <- df2 %>%
  group_by(indivID)

grouped_df2 %>%
  summarise(Work_or_school_mean = mean(value1), Free_time_mean = mean(value2), Other_mean = mean(value3))

## `summarise()` ungrouping output (override with `.groups` argument)

## # A tibble: 356 x 4
##    indivID Work_or_school_mean Free_time_mean Other_mean
##    <chr>                 <dbl>          <dbl>      <dbl>
##  1 1013302              28.1             326.     10.7  
##  2 1056237               0               359.      0.943
##  3 1103940              42.1             310.     14.9  
##  4 118068               95.5             256.     25.7  
##  5 1198262              82.9             282.     12.6  
##  6 1202035              87.9             204.     72.2  
##  7 121881                0.238           323.     29.7  
##  8 1226238              68               264.     35.8  
##  9 1292043              87.6             268.     20.6  
## 10 1326897              54.8             267.     41.6  
## # ... with 346 more rows
…
Exercise 2

2.1

What is computed in the code chunk below - what do the numbers tell you?

Can you think of another way to calculate the same thing?

df2 %>%
  distinct(indivID, date) %>%
  arrange(date) %>%
  count(date)

## # A tibble: 73 x 2
##    date           n
##    <date>     <int>
##  1 2016-10-14     6
##  2 2016-10-15    11
##  3 2016-10-16    10
##  4 2016-10-17    10
##  5 2016-10-18    14
##  6 2016-10-19    16
##  7 2016-10-20    11
##  8 2016-10-21    11
##  9 2016-10-22    17
## 10 2016-10-23    18
## # ... with 63 more rows

grouped_df2 <- df2 %>%
  group_by(date)

grouped_df2 %>%
  summarise(n = n())

## `summarise()` ungrouping output (override with `.groups` argument)

## # A tibble: 73 x 2
##    date           n
##    <date>     <int>
##  1 2016-10-14   360
##  2 2016-10-15   660
##  3 2016-10-16   600
##  4 2016-10-17   600
##  5 2016-10-18   840
##  6 2016-10-19   960
##  7 2016-10-20   660
##  8 2016-10-21   660
##  9 2016-10-22  1020
## 10 2016-10-23  1080
## # ... with 63 more rows
…
